{
  "version": 1,
  "xLength": 5,
  "yLength": 5,
  "posts": [
    {
      "x": 3,
      "y": 0,
      "height": 10
    },
    {
      "x": 3,
      "y": 3,
      "height": 4
    },
    {
      "x": 3,
      "y": 4,
      "height": 3
    },
    {
      "x": 1,
      "y": 4,
      "height": 1
    }
  ],
  "trackPieces": [
    {
      "type": "straight",
      "x": 4,
      "y": 3,
      "height": 4,
      "direction": "S",
      "length": 1,
      "drop": 1
    },
    {
      "type": "straight",
      "x": 4,
      "y": 5,
      "height": 3,
      "direction": "W",
      "length": 2,
      "drop": 2
    },
    {
      "type": "curve",
      "x": 4,
      "y": 3,
      "height": 4,
      "direction": "E",
      "turn": "right"
    },
    {
      "type": "curve",
      "x": 4,
      "y": 5,
      "height": 4,
      "direction": "S",
      "turn": "right"
    },
    {
      "type": "start",
      "x": 4,
      "y": 0,
      "height": 10,
      "direction": "W"
    },
    {
      "type": "end",
      "x": 1,
      "y": 5,
      "height": 1,
      "direction": "W"
    }
  ]
}
