<?xml version="1.0" encoding="UTF-8" standalone="no"?>
<!-- Created with Inkscape (http://www.inkscape.org/) -->

<svg
   xmlns:dc="http://purl.org/dc/elements/1.1/"
   xmlns:cc="http://creativecommons.org/ns#"
   xmlns:rdf="http://www.w3.org/1999/02/22-rdf-syntax-ns#"
   xmlns:svg="http://www.w3.org/2000/svg"
   xmlns="http://www.w3.org/2000/svg"
   xmlns:sodipodi="http://sodipodi.sourceforge.net/DTD/sodipodi-0.dtd"
   xmlns:inkscape="http://www.inkscape.org/namespaces/inkscape"
   width="7.8000002cm"
   height="11cm"
   viewBox="0 0 78.000002 110"
   version="1.1"
   id="svg8"
   inkscape:version="0.92.3 (2405546, 2018-03-11)"
   sodipodi:docname="template01.svg">
  <defs
     id="defs2" />
  <sodipodi:namedview
     id="base"
     pagecolor="#ffffff"
     bordercolor="#666666"
     borderopacity="1.0"
     inkscape:pageopacity="0.0"
     inkscape:pageshadow="2"
     inkscape:zoom="0.98994949"
     inkscape:cx="64.22534"
     inkscape:cy="198.35855"
     inkscape:document-units="mm"
     inkscape:current-layer="layer1"
     showgrid="false"
     units="cm"
     borderlayer="true"
     inkscape:window-width="1366"
     inkscape:window-height="678"
     inkscape:window-x="0"
     inkscape:window-y="31"
     inkscape:window-maximized="1" />
  <metadata
     id="metadata5">
    <rdf:RDF>
      <cc:Work
         rdf:about="">
        <dc:format>image/svg+xml</dc:format>
        <dc:type
           rdf:resource="http://purl.org/dc/dcmitype/StillImage" />
        <dc:title></dc:title>
      </cc:Work>
    </rdf:RDF>
  </metadata>
  <g
     inkscape:label="Layer 1"
     inkscape:groupmode="layer"
     id="layer1"
     transform="translate(0,-187.00002)">
    <rect
       style="fill:#b3b3b3;fill-opacity:1;stroke:#333333;stroke-width:0.04549414;stroke-linecap:round;stroke-miterlimit:4;stroke-dasharray:none;stroke-opacity:1"
       id="rect815"
       width="86.638069"
       height="10.66484"
       x="-4.3190336"
       y="288.45477" />
    <flowRoot
       xml:space="preserve"
       id="flowRoot817"
       style="font-style:normal;font-variant:normal;font-weight:normal;font-stretch:normal;font-size:34.08927155px;line-height:1.25;font-family:Ubuntu;-inkscape-font-specification:Ubuntu;text-align:center;letter-spacing:0px;word-spacing:0px;text-anchor:middle;fill:#000000;fill-opacity:1;stroke:none"
       transform="matrix(0.2276702,0,0,0.2276702,17.445429,181.00695)"><flowRegion
         id="flowRegion819"
         style="font-style:normal;font-variant:normal;font-weight:normal;font-stretch:normal;font-size:34.08927155px;font-family:Ubuntu;-inkscape-font-specification:Ubuntu;text-align:center;text-anchor:middle"><rect
           id="rect821"
           width="296.84958"
           height="96.948227"
           x="-53.538086"
           y="33.910355"
           style="font-style:normal;font-variant:normal;font-weight:normal;font-stretch:normal;font-size:34.08927155px;font-family:Ubuntu;-inkscape-font-specification:Ubuntu;text-align:center;text-anchor:middle" /></flowRegion><flowPara
         id="flowPara853">Complete the ride!</flowPara></flowRoot>    <path
       style="fill:none;stroke:#000000;stroke-width:0.69999999;stroke-linecap:round;stroke-linejoin:miter;stroke-miterlimit:4;stroke-dasharray:none;stroke-opacity:1"
       d="M 5.3240411,206.66292 H 72.675961"
       id="path855"
       inkscape:connector-curvature="0" />
    <path
       style="fill:none;stroke:#000000;stroke-width:0.69999999;stroke-linecap:round;stroke-linejoin:miter;stroke-miterlimit:4;stroke-dasharray:none;stroke-opacity:1"
       d="M 5.3240411,270.13279 H 72.675963"
       id="path855-4"
       inkscape:connector-curvature="0" />
    <rect
       style="fill:#999999;fill-opacity:1;stroke:none;stroke-width:0.69999999;stroke-linecap:round;stroke-miterlimit:4;stroke-dasharray:none;stroke-opacity:1"
       id="rect874"
       width="49.136902"
       height="49.136902"
       x="14.43155"
       y="218.24339" />
    <flowRoot
       xml:space="preserve"
       id="flowRoot817-4"
       style="font-style:normal;font-variant:normal;font-weight:normal;font-stretch:normal;font-size:24.79219627px;line-height:1.25;font-family:Ubuntu;-inkscape-font-specification:Ubuntu;text-align:center;letter-spacing:0px;word-spacing:0px;text-anchor:middle;fill:#666666;fill-opacity:1;stroke:none"
       transform="matrix(0.2276702,0,0,0.2276702,17.400123,190.3822)"><flowRegion
         id="flowRegion819-9"
         style="font-style:normal;font-variant:normal;font-weight:normal;font-stretch:normal;font-size:24.79219627px;font-family:Ubuntu;-inkscape-font-specification:Ubuntu;text-align:center;text-anchor:middle;fill:#666666"><rect
           id="rect821-9"
           width="296.84958"
           height="96.948227"
           x="-53.538086"
           y="33.910355"
           style="font-style:normal;font-variant:normal;font-weight:normal;font-stretch:normal;font-size:24.79219627px;font-family:Ubuntu;-inkscape-font-specification:Ubuntu;text-align:center;text-anchor:middle;fill:#666666" /></flowRegion><flowPara
         id="flowPara853-3">{{challenge-name}}</flowPara></flowRoot>    <flowRoot
       xml:space="preserve"
       id="flowRoot817-4-6"
       style="font-style:normal;font-variant:normal;font-weight:normal;font-stretch:normal;font-size:24.79219627px;line-height:1.25;font-family:Ubuntu;-inkscape-font-specification:Ubuntu;text-align:center;letter-spacing:0px;word-spacing:0px;text-anchor:middle;fill:#000000;fill-opacity:1;stroke:none;"
       transform="matrix(0.2276702,0,0,0.2276702,17.400123,200.53844)"><flowRegion
         id="flowRegion819-9-0"
         style="font-style:normal;font-variant:normal;font-weight:normal;font-stretch:normal;font-size:24.79219627px;font-family:Ubuntu;-inkscape-font-specification:Ubuntu;text-align:center;text-anchor:middle;fill:#000000;"><rect
           id="rect821-9-5"
           width="296.84958"
           height="96.948227"
           x="-53.538086"
           y="33.910355"
           style="font-style:normal;font-variant:normal;font-weight:normal;font-stretch:normal;font-size:24.79219627px;font-family:Ubuntu;-inkscape-font-specification:Ubuntu;text-align:center;text-anchor:middle;fill:#000000;" /></flowRegion><flowPara
         id="flowPara853-3-0">Your challenge</flowPara></flowRoot>    <flowRoot
       xml:space="preserve"
       id="flowRoot817-4-5"
       style="font-style:normal;font-variant:normal;font-weight:normal;font-stretch:normal;font-size:24.79219627px;line-height:1.25;font-family:Ubuntu;-inkscape-font-specification:Ubuntu;text-align:center;letter-spacing:0px;word-spacing:0px;text-anchor:middle;fill:#000000;fill-opacity:1;stroke:none"
       transform="matrix(0.2276702,0,0,0.2276702,17.60857,262.70535)"><flowRegion
         id="flowRegion819-9-1"
         style="font-style:normal;font-variant:normal;font-weight:normal;font-stretch:normal;font-size:24.79219627px;font-family:Ubuntu;-inkscape-font-specification:Ubuntu;text-align:center;text-anchor:middle;fill:#000000"><rect
           id="rect821-9-7"
           width="296.84958"
           height="96.948227"
           x="-53.538086"
           y="33.910355"
           style="font-style:normal;font-variant:normal;font-weight:normal;font-stretch:normal;font-size:24.79219627px;font-family:Ubuntu;-inkscape-font-specification:Ubuntu;text-align:center;text-anchor:middle;fill:#000000" /></flowRegion><flowPara
         id="flowPara853-3-4">You add</flowPara></flowRoot>    <flowRoot
       xml:space="preserve"
       id="flowRoot817-4-5-3"
       style="font-style:normal;font-variant:normal;font-weight:normal;font-stretch:normal;font-size:24.79219627px;line-height:1.25;font-family:Ubuntu;-inkscape-font-specification:Ubuntu;text-align:center;letter-spacing:0px;word-spacing:0px;text-anchor:middle;fill:#000000;fill-opacity:1;stroke:none"
       transform="matrix(0.2276702,0,0,0.2276702,17.170597,281.68149)"><flowRegion
         id="flowRegion819-9-1-1"
         style="font-style:normal;font-variant:normal;font-weight:normal;font-stretch:normal;font-size:24.79219627px;font-family:Ubuntu;-inkscape-font-specification:Ubuntu;text-align:center;text-anchor:middle;fill:#000000"><rect
           id="rect821-9-7-4"
           width="296.84958"
           height="96.948227"
           x="-53.538086"
           y="33.910355"
           style="font-style:normal;font-variant:normal;font-weight:normal;font-stretch:normal;font-size:24.79219627px;font-family:Ubuntu;-inkscape-font-specification:Ubuntu;text-align:center;text-anchor:middle;fill:#000000" /></flowRegion><flowPara
         id="flowPara853-3-4-6">{{difficulty}}</flowPara></flowRoot>    <rect
       style="fill:#b3b3b3;fill-opacity:1;stroke:#333333;stroke-width:0.03857499;stroke-linecap:round;stroke-miterlimit:4;stroke-dasharray:none;stroke-opacity:1"
       id="rect815-9"
       width="65.530701"
       height="10.137219"
       x="6.2346506"
       y="276.54379" />
  </g>
</svg>
